rock-08.0-master-py3
Salt install method: git
# salt-call --versions-report
Salt Version:
          Salt: 3005+0na.264d02a
 
Dependency Versions:
          cffi: Not Installed
      cherrypy: Not Installed
      dateutil: 2.6.1
     docker-py: Not Installed
         gitdb: Not Installed
     gitpython: Not Installed
        Jinja2: 3.0.3
       libgit2: Not Installed
      M2Crypto: Not Installed
          Mako: Not Installed
       msgpack: 1.0.4
  msgpack-pure: Not Installed
  mysql-python: Not Installed
     pycparser: Not Installed
      pycrypto: Not Installed
  pycryptodome: 3.15.0
        pygit2: Not Installed
        Python: 3.6.8 (default, Apr 12 2022, 06:55:39)
  python-gnupg: Not Installed
        PyYAML: 6.0
         PyZMQ: 23.2.0
         smmap: Not Installed
       timelib: Not Installed
       Tornado: 4.5.3
           ZMQ: 4.3.4
 
System Versions:
          dist: rocky 8.6 Green Obsidian
        locale: UTF-8
       machine: x86_64
       release: 5.4.109+
        system: Linux
       version: Rocky Linux 8.6 Green Obsidian
 
# salt-call --local grains.item init kernel kernelrelease kernelversion locale_info lsb_distrib_codename lsb_distrib_id lsb_distrib_release os os_family osarch osbuild oscodename osfinger osfullname osmajorrelease osmanufacturer osrelease osrelease_info osversion pythonexecutable pythonpath pythonversion saltpath saltversion saltversioninfo systemd virtual virtual_subtype zmqversion
local:
    ----------
    init:
        unknown
    kernel:
        Linux
    kernelrelease:
        5.4.109+
    kernelversion:
        #1 SMP Wed Jun 16 20:00:10 PDT 2021
    locale_info:
        ----------
        defaultencoding:
            UTF-8
        defaultlanguage:
            en_US
        detectedencoding:
            UTF-8
        timezone:
            UTC
    lsb_distrib_codename:
        Rocky Linux 8.6 (Green Obsidian)
    lsb_distrib_id:
        Rocky Linux
    lsb_distrib_release:
        8.6
    os:
        Rocky
    os_family:
        RedHat
    osarch:
        x86_64
    osbuild:
    oscodename:
        Rocky Linux 8.6 (Green Obsidian)
    osfinger:
        Rocky Linux-8
    osfullname:
        Rocky Linux
    osmajorrelease:
        8
    osmanufacturer:
    osrelease:
        8.6
    osrelease_info:
        - 8
        - 6
    osversion:
    pythonexecutable:
        /usr/bin/python3.6
    pythonpath:
        - /usr/bin
        - /usr/lib64/python36.zip
        - /usr/lib64/python3.6
        - /usr/lib64/python3.6/lib-dynload
        - /usr/lib64/python3.6/site-packages
        - /usr/lib/python3.6/site-packages
    pythonversion:
        - 3
        - 6
        - 8
        - final
        - 0
    saltpath:
        /usr/lib/python3.6/site-packages/salt
    saltversion:
        3005+0na.264d02a
    saltversioninfo:
        - 3005
    systemd:
        ----------
        features:
            +PAM +AUDIT +SELINUX +IMA -APPARMOR +SMACK +SYSVINIT +UTMP +LIBCRYPTSETUP +GCRYPT +GNUTLS +ACL +XZ +LZ4 +SECCOMP +BLKID +ELFUTILS +KMOD +IDN2 -IDN +PCRE2 default-hierarchy=legacy
        version:
            239
    virtual:
        container
    virtual_subtype:
        Docker
    zmqversion:
        4.3.4
# salt-call --local pkg.list_pkgs
local:
    ----------
    acl:
        2.2.53-1.el8.1
    audit-libs:
        3.0.7-2.el8.2
    basesystem:
        11-5.el8
    bash:
        4.4.20-3.el8
    binutils:
        2.30-113.el8
    bzip2-libs:
        1.0.6-26.el8
    ca-certificates:
        2021.2.50-80.0.el8_4
    chkconfig:
        1.19.1-1.el8
    coreutils-single:
        8.30-12.el8
    cpio:
        2.12-11.el8
    cpp:
        8.5.0-10.1.el8_6
    cracklib:
        2.9.6-15.el8
    cracklib-dicts:
        2.9.6-15.el8
    crypto-policies:
        20211116-1.gitae470d6.el8
    crypto-policies-scripts:
        20211116-1.gitae470d6.el8
    cryptsetup-libs:
        2.3.7-2.el8
    curl:
        7.61.1-22.el8_6.3
    cyrus-sasl-lib:
        2.1.27-6.el8_5
    dbus:
        1:1.12.8-18.el8
    dbus-common:
        1:1.12.8-18.el8
    dbus-daemon:
        1:1.12.8-18.el8
    dbus-glib:
        0.110-2.el8
    dbus-libs:
        1:1.12.8-18.el8
    dbus-tools:
        1:1.12.8-18.el8
    device-mapper:
        8:1.02.181-3.el8
    device-mapper-libs:
        8:1.02.181-3.el8
    diffutils:
        3.6-6.el8
    dnf:
        4.7.0-8.el8
    dnf-data:
        4.7.0-8.el8
    dnf-plugins-core:
        4.0.21-11.el8
    dracut:
        049-202.git20220511.el8_6
    elfutils-debuginfod-client:
        0.186-1.el8
    elfutils-default-yama-scope:
        0.186-1.el8
    elfutils-libelf:
        0.186-1.el8
    elfutils-libs:
        0.186-1.el8
    emacs-filesystem:
        1:26.1-7.el8
    epel-release:
        8-15.el8
    expat:
        2.2.5-8.el8_6.2
    file:
        5.33-20.el8
    file-libs:
        5.33-20.el8
    filesystem:
        3.8-6.el8
    findutils:
        1:4.6.0-20.el8
    gawk:
        4.2.1-4.el8
    gcc:
        8.5.0-10.1.el8_6
    gdbm:
        1:1.18-1.el8
    gdbm-libs:
        1:1.18-1.el8
    gettext:
        0.19.8.1-17.el8
    gettext-libs:
        0.19.8.1-17.el8
    git:
        2.31.1-2.el8
    git-core:
        2.31.1-2.el8
    git-core-doc:
        2.31.1-2.el8
    glib2:
        2.56.4-158.el8
    glibc:
        2.28-189.5.el8_6
    glibc-common:
        2.28-189.5.el8_6
    glibc-devel:
        2.28-189.5.el8_6
    glibc-gconv-extra:
        2.28-189.5.el8_6
    glibc-headers:
        2.28-189.5.el8_6
    glibc-langpack-en:
        2.28-189.5.el8_6
    glibc-minimal-langpack:
        2.28-189.5.el8_6
    gmp:
        1:6.1.2-10.el8
    gnupg2:
        2.2.20-2.el8
    gnutls:
        3.6.16-4.el8
    gpg-pubkey.(none):
        6d745a60-60287f36,de57bfbe-53a9be98
    gpgme:
        1.13.1-11.el8
    grep:
        3.1-6.el8
    groff-base:
        1.22.3-18.el8
    grub2-common:
        1:2.02-123.el8_6.8.rocky.0.1
    grub2-tools:
        1:2.02-123.el8_6.8.rocky.0.1
    grub2-tools-minimal:
        1:2.02-123.el8_6.8.rocky.0.1
    grubby:
        8.40-42.el8
    gzip:
        1.9-13.el8_5
    hardlink:
        1:1.3-6.el8
    hostname:
        3.20-6.el8
    ima-evm-utils:
        1.3.2-12.el8
    info:
        6.5-7.el8
    iputils:
        20180629-9.el8
    isl:
        0.16.1-6.el8
    json-c:
        0.13.1-3.el8
    kbd:
        2.0.4-10.el8
    kbd-legacy:
        2.0.4-10.el8
    kbd-misc:
        2.0.4-10.el8
    kernel-headers:
        4.18.0-372.13.1.el8_6
    keyutils-libs:
        1.5.10-9.el8
    keyutils-libs-devel:
        1.5.10-9.el8
    kmod:
        25-19.el8
    kmod-libs:
        25-19.el8
    kpartx:
        0.8.4-22.el8
    krb5-devel:
        1.18.2-14.el8
    krb5-libs:
        1.18.2-14.el8
    less:
        530-1.el8
    libacl:
        2.2.53-1.el8.1
    libarchive:
        3.3.3-3.el8_5
    libassuan:
        2.5.1-3.el8
    libattr:
        2.4.48-3.el8
    libblkid:
        2.32.1-35.el8
    libcap:
        2.48-2.el8
    libcap-ng:
        0.7.11-1.el8
    libcom_err:
        1.45.6-4.el8
    libcom_err-devel:
        1.45.6-4.el8
    libcomps:
        0.1.18-1.el8
    libcroco:
        0.6.12-4.el8_2.1
    libcurl-minimal:
        7.61.1-22.el8_6.3
    libdb:
        5.3.28-42.el8_4
    libdb-utils:
        5.3.28-42.el8_4
    libdnf:
        0.63.0-8.el8
    libedit:
        3.1-23.20170329cvs.el8
    libevent:
        2.1.8-5.el8
    libfdisk:
        2.32.1-35.el8
    libffi:
        3.1-23.el8
    libgcc:
        8.5.0-10.1.el8_6
    libgcrypt:
        1.8.5-7.el8_6
    libgomp:
        8.5.0-10.1.el8_6
    libgpg-error:
        1.31-1.el8
    libidn2:
        2.2.0-1.el8
    libkadm5:
        1.18.2-14.el8
    libkcapi:
        1.2.0-2.el8
    libkcapi-hmaccalc:
        1.2.0-2.el8
    libksba:
        1.3.5-7.el8
    libmodulemd:
        2.13.0-1.el8
    libmount:
        2.32.1-35.el8
    libmpc:
        1.1.0-9.1.el8
    libnghttp2:
        1.33.0-3.el8_3.1
    libnsl2:
        1.2.0-2.20180605git4a062cf.el8
    libpkgconf:
        1.4.2-1.el8
    libpwquality:
        1.4.4-3.el8
    librepo:
        1.14.2-1.el8
    libreport-filesystem:
        2.9.5-15.el8.rocky.6.3
    libseccomp:
        2.5.2-1.el8
    libselinux:
        2.9-5.el8
    libselinux-devel:
        2.9-5.el8
    libsemanage:
        2.9-8.el8
    libsepol:
        2.9-3.el8
    libsepol-devel:
        2.9-3.el8
    libsigsegv:
        2.11-5.el8
    libsmartcols:
        2.32.1-35.el8
    libsolv:
        0.7.20-1.el8
    libstdc++:
        8.5.0-10.1.el8_6
    libtasn1:
        4.13-3.el8
    libtirpc:
        1.1.4-6.el8
    libunistring:
        0.9.9-3.el8
    libusbx:
        1.0.23-4.el8
    libutempter:
        1.1.6-14.el8
    libuuid:
        2.32.1-35.el8
    libverto:
        0.3.0-5.el8
    libverto-devel:
        0.3.0-5.el8
    libxcrypt:
        4.1.1-6.el8
    libxcrypt-devel:
        4.1.1-6.el8
    libxkbcommon:
        0.9.1-1.el8
    libxml2:
        2.9.7-13.el8_6.1
    libyaml:
        0.1.7-5.el8
    libzstd:
        1.4.4-1.el8
    lua-libs:
        5.3.4-12.el8
    lz4-libs:
        1.8.3-3.el8_4
    memstrack:
        0.1.11-1.el8
    mpfr:
        3.1.6-1.el8
    ncurses:
        6.1-9.20180224.el8
    ncurses-base:
        6.1-9.20180224.el8
    ncurses-libs:
        6.1-9.20180224.el8
    net-tools:
        2.0-0.52.20160912git.el8
    nettle:
        3.4.1-7.el8
    npth:
        1.5-4.el8
    openldap:
        2.4.46-18.el8
    openssh:
        8.0p1-13.el8
    openssh-clients:
        8.0p1-13.el8
    openssh-server:
        8.0p1-13.el8
    openssl:
        1:1.1.1k-6.el8_5
    openssl-devel:
        1:1.1.1k-6.el8_5
    openssl-libs:
        1:1.1.1k-6.el8_5
    openssl-pkcs11:
        0.4.10-2.el8
    os-prober:
        1.74-9.el8
    p11-kit:
        0.23.22-1.el8
    p11-kit-trust:
        0.23.22-1.el8
    pam:
        1.3.1-16.el8
    pcre:
        8.42-6.el8
    pcre2:
        10.32-2.el8
    pcre2-devel:
        10.32-2.el8
    pcre2-utf16:
        10.32-2.el8
    pcre2-utf32:
        10.32-2.el8
    perl-Carp:
        1.42-396.el8
    perl-Data-Dumper:
        2.167-399.el8
    perl-Digest:
        1.17-395.el8
    perl-Digest-MD5:
        2.55-396.el8
    perl-Encode:
        4:2.97-3.el8
    perl-Errno:
        1.28-421.el8
    perl-Error:
        1:0.17025-2.el8
    perl-Exporter:
        5.72-396.el8
    perl-File-Path:
        2.15-2.el8
    perl-File-Temp:
        0.230.600-1.el8
    perl-Getopt-Long:
        1:2.50-4.el8
    perl-Git:
        2.31.1-2.el8
    perl-HTTP-Tiny:
        0.074-1.el8
    perl-IO:
        1.38-421.el8
    perl-IO-Socket-IP:
        0.39-5.el8
    perl-IO-Socket-SSL:
        2.066-4.module+el8.6.0+957+15d660ad
    perl-MIME-Base64:
        3.15-396.el8
    perl-Mozilla-CA:
        20160104-7.module+el8.6.0+965+850557f9
    perl-Net-SSLeay:
        1.88-2.module+el8.6.0+957+15d660ad
    perl-PathTools:
        3.74-1.el8
    perl-Pod-Escapes:
        1:1.07-395.el8
    perl-Pod-Perldoc:
        3.28-396.el8
    perl-Pod-Simple:
        1:3.35-395.el8
    perl-Pod-Usage:
        4:1.69-395.el8
    perl-Scalar-List-Utils:
        3:1.49-2.el8
    perl-Socket:
        4:2.027-3.el8
    perl-Storable:
        1:3.11-3.el8
    perl-Term-ANSIColor:
        4.06-396.el8
    perl-Term-Cap:
        1.17-395.el8
    perl-TermReadKey:
        2.37-7.el8
    perl-Text-ParseWords:
        3.30-395.el8
    perl-Text-Tabs+Wrap:
        2013.0523-395.el8
    perl-Time-Local:
        1:1.280-1.el8
    perl-URI:
        1.73-3.el8
    perl-Unicode-Normalize:
        1.25-396.el8
    perl-constant:
        1.33-396.el8
    perl-interpreter:
        4:5.26.3-421.el8
    perl-libnet:
        3.11-3.el8
    perl-libs:
        4:5.26.3-421.el8
    perl-macros:
        4:5.26.3-421.el8
    perl-parent:
        1:0.237-1.el8
    perl-podlators:
        4.11-1.el8
    perl-threads:
        1:2.21-2.el8
    perl-threads-shared:
        1.58-2.el8
    pigz:
        2.4-4.el8
    pkgconf:
        1.4.2-1.el8
    pkgconf-m4:
        1.4.2-1.el8
    pkgconf-pkg-config:
        1.4.2-1.el8
    platform-python:
        3.6.8-45.el8.rocky.0
    platform-python-devel:
        3.6.8-45.el8.rocky.0
    platform-python-pip:
        9.0.3-22.el8.rocky.0
    platform-python-setuptools:
        39.2.0-6.el8
    popt:
        1.18-1.el8
    procps-ng:
        3.3.15-6.el8
    python-rpm-macros:
        3-41.el8
    python-srpm-macros:
        3-41.el8
    python3-dateutil:
        1:2.6.1-6.el8
    python3-dbus:
        1.2.4-15.el8
    python3-dnf:
        4.7.0-8.el8
    python3-dnf-plugins-core:
        4.0.21-11.el8
    python3-gpg:
        1.13.1-11.el8
    python3-hawkey:
        0.63.0-8.el8
    python3-libcomps:
        0.1.18-1.el8
    python3-libdnf:
        0.63.0-8.el8
    python3-libs:
        3.6.8-45.el8.rocky.0
    python3-pip:
        9.0.3-22.el8.rocky.0
    python3-pip-wheel:
        9.0.3-22.el8.rocky.0
    python3-rpm:
        4.14.3-23.el8
    python3-rpm-generators:
        5-7.el8
    python3-rpm-macros:
        3-41.el8
    python3-setuptools:
        39.2.0-6.el8
    python3-setuptools-wheel:
        39.2.0-6.el8
    python3-six:
        1.11.0-8.el8
    python3-unbound:
        1.7.3-17.el8
    python36:
        3.6.8-38.module+el8.5.0+671+195e4563
    python36-devel:
        3.6.8-38.module+el8.5.0+671+195e4563
    readline:
        7.0-10.el8
    rocky-gpg-keys:
        8.6-3.el8
    rocky-release:
        8.6-3.el8
    rocky-repos:
        8.6-3.el8
    rootfiles:
        8.1-22.el8
    rpm:
        4.14.3-23.el8
    rpm-build-libs:
        4.14.3-23.el8
    rpm-libs:
        4.14.3-23.el8
    rpm-plugin-systemd-inhibit:
        4.14.3-23.el8
    sed:
        4.5-5.el8
    setup:
        2.12.2-6.el8
    shadow-utils:
        2:4.6-16.el8
    shared-mime-info:
        1.9-3.el8
    sqlite-libs:
        3.26.0-15.el8
    sudo:
        1.8.29-8.el8
    swig:
        3.0.12-19.module+el8.4.0+385+82b6e804
    systemd:
        239-58.el8
    systemd-libs:
        239-58.el8
    systemd-pam:
        239-58.el8
    systemd-udev:
        239-58.el8
    tar:
        2:1.30-5.el8
    tpm2-tss:
        2.3.2-4.el8
    tzdata:
        2022a-1.el8
    unbound-libs:
        1.7.3-17.el8
    util-linux:
        2.32.1-35.el8
    vim-minimal:
        2:8.0.1763-19.el8_6.2
    which:
        2.21-17.el8
    xkeyboard-config:
        2.28-1.el8
    xz:
        5.2.4-4.el8_6
    xz-libs:
        5.2.4-4.el8_6
    yum:
        4.7.0-8.el8
    yum-utils:
        4.0.21-11.el8
    zlib:
        1.2.11-18.el8_5
    zlib-devel:
        1.2.11-18.el8_5
# salt-call --local pip.list
local:
    ----------
    Jinja2:
        3.0.3
    MarkupSafe:
        2.0.1
    PyYAML:
        6.0
    certifi:
        2022.6.15
    charset-normalizer:
        2.0.12
    contextvars:
        2.4
    dbus-python:
        1.2.4
    distro:
        1.7.0
    gpg:
        1.13.1
    idna:
        3.3
    immutables:
        0.18
    libcomps:
        0.1.18
    msgpack:
        1.0.4
    pip:
        9.0.3
    psutil:
        5.9.1
    pycryptodomex:
        3.15.0
    python-dateutil:
        2.6.1
    pyzmq:
        23.2.0
    requests:
        2.27.1
    rpm:
        4.14.3
    salt:
        3005+0na.264d02a
    setuptools:
        39.2.0
    six:
        1.11.0
    typing-extensions:
        4.1.1
    urllib3:
        1.26.9
    wheel:
        0.37.1
# salt-call --local locale.list_avail
local:
    - C
    - C.utf8
    - POSIX
    - en_AG
    - en_AU
    - en_AU.utf8
    - en_BW
    - en_BW.utf8
    - en_CA
    - en_CA.utf8
    - en_DK
    - en_DK.utf8
    - en_GB
    - en_GB.iso885915
    - en_GB.utf8
    - en_HK
    - en_HK.utf8
    - en_IE
    - en_IE.utf8
    - en_IE@euro
    - en_IL
    - en_IN
    - en_NG
    - en_NZ
    - en_NZ.utf8
    - en_PH
    - en_PH.utf8
    - en_SC.utf8
    - en_SG
    - en_SG.utf8
    - en_US
    - en_US.iso885915
    - en_US.utf8
    - en_US@ampm.UTF-8
    - en_ZA
    - en_ZA.utf8
    - en_ZM
    - en_ZW
    - en_ZW.utf8
